Inititial visualizations
…
print(combined)

## # A tibble: 324 x 11
##    team  game_num games_ahead  runs runs_allowed record w_or_l wins_so_far
##    <chr>    <int>       <dbl> <int>        <int> <chr>  <fct>        <int>
##  1 LAD          1        0.      14            3 1-0    W                1
##  2 LAD          2       -1.00     0            4 1-1    L                1
##  3 LAD          3        0.       3            1 2-1    W                2
##  4 LAD          4        0.      10            2 3-1    W                3
##  5 LAD          5       -1.00     1            2 3-2    L                3
##  6 LAD          6       -2.00     2            4 3-3    L                3
##  7 LAD          7       -2.00    10            6 4-3    W                4
##  8 LAD          8       -2.00     2            3 4-4    L-wo             4
##  9 LAD          9       -1.50     2            0 5-4    W                5
## 10 LAD         10       -2.00     0            4 5-5    L                5
## # ... with 314 more rows, and 3 more variables: runs_so_far <int>,
## #   RA_so_far <int>, streak <chr>
…
